<svg width="31" height="31" viewBox="0 0 31 31" fill="none" xmlns="http://www.w3.org/2000/svg">
<g id="Hover Arrow copy" clip-path="url(#clip0_2143_63)">
<path id="Rectangle 67" fill-rule="evenodd" clip-rule="evenodd" d="M1.27225 1.99665H31.9999V32.9964H1.27225V1.99665Z" />
<path id="Forma 1" fill-rule="evenodd" clip-rule="evenodd" d="M14.4921 11.4875L13.187 12.8899L17.475 17.4971L13.187 22.1056L14.4921 23.5084L20.0851 17.4971L14.4921 11.4875Z" fill="#BBBBBB"/>
</g>
<defs>
<clipPath id="clip0_2143_63">
<rect width="31" height="31" fill="white"/>
</clipPath>
</defs>
</svg>

